{
    "variants":
    {
        "burning=false,facingnorth": { "model": "nexuscraft:src/main/resources/textures/alloy_furnace" },
        "burning=false,facingeast": { "model": "nexuscraft:src/main/resources/textures/alloy_furnace": "Y": 90 },
        "burning=false,facingsouth": { "model": "nexuscraft:src/main/resources/textures/alloy_furnace": "Y": 180 },
        "burning=false,facingwest": { "model": "nexuscraft:src/main/resources/textures/alloy_furnace": "Y": 270 }, 
        "burning=true,facingnorth": { "model": "nexuscraft:src/main/resources/textures/lit_alloy_furnace" },
        "burning=true,facingeast": { "model": "nexuscraft:src/main/resources/textures/lit_alloy_furnace": "Y": 90 },
        "burning=true,facingsouth": { "model": "nexuscraft:src/main/resources/textures/lit_alloy_furnace": "Y": 180 },
        "burning=true,facingwest": { "model": "nexuscraft:src/main/resources/textures/lit_alloy_furnace": "Y": 270 },
        
    }
}