{
    "type": "minecraft:crafting_shapeless",
 
    "ingredients":
    [
 
    {
      "item": "nexuscraft:steel_ingot"
    }
   
    ],
 
    "result":
    {
        "item": "nexuscraft:steel_nugget",
        "count": 9
    }
}